<svg xmlns="http://www.w3.org/2000/svg" width="24" height="24" viewBox="0 0 24 24">
    <g fill="none" fill-rule="evenodd">
        <g fill="#FFC900">
            <g>
                <path
                        d="M12.5 0c.827 0 1.5.672 1.5 1.5v5.279c0 .646-.412 1.218-1.025 1.423l-1.633.544c-.204.068-.342.259-.342.474V22.5c0 .827-.673 1.5-1.5 1.5-.724 0-1.434-.129-2.111-.383l-5.767-2.162C.652 21.09 0 20.15 0 19.113V4.988c0-1.113.716-2.075 1.782-2.395L8.44.595C9.759.2 11.125 0 12.5 0zm-.263 18.311c.147-.092.331-.1.487-.022l3.105 1.552c.13.065.28.107.475.133.165.021.307.123.383.271.074.148.07.324-.011.469C16.231 21.507 15.397 22 14.5 22h-2c-.276 0-.5-.224-.5-.5v-2.764c0-.173.09-.334.237-.425zm4.263-3.858l2.039 1.699c.269.224.61.348.961.348.281 0 .555-.079.794-.228l.706-.441v.669c0 .189-.108.362-.277.447l-4 2c-.07.035-.147.053-.223.053-.077 0-.154-.018-.224-.053l-4-2c-.169-.085-.276-.258-.276-.447v-.698l.669.446c.247.165.535.252.831.252.35 0 .691-.124.961-.348l2.039-1.699zm2.722-9.369c.15-.1.341-.112.501-.032l4 2c.152.076.254.223.274.39.019.167-.047.333-.177.442l-2.538 2.115 2.538 2.116c.098.082.16.199.176.324l.003.095c-.011.159-.098.304-.235.389l-2.765 1.727.001.002-1.172.73-.064.041c-.054.035-.113.057-.173.069l-.091.008c-.115 0-.228-.039-.321-.116l-1.33-1.108-.568-.474-.782-.651-2.679 2.233c-.069.058-.15.094-.235.109l-.085.007c-.097 0-.193-.028-.277-.084l-1-.667c-.139-.093-.223-.249-.223-.416v-4.107c0-.178.095-.343.249-.432.152-.09.345-.09.498-.002l3.741 2.126 3.07-1.919-3.061-1.913-1.227.752c-.055.033-.112.054-.172.065l-.089.008c-.132 0-.262-.052-.359-.152-.163-.168-.188-.425-.06-.621.258-.396.398-.851.406-1.316.003-.183.106-.35.268-.435.163-.084.356-.074.509.027l.726.484zm-2.731 4.179l1.178.737-1.206.753-1.249-.71 1.277-.78zm-1.24-6.92c.155-.088.346-.088.501.002C16.521 2.793 17 3.619 17 4.5v.616c0 .18-.096.345-.251.434-.077.044-.163.066-.249.066-.087 0-.175-.023-.253-.068-.241-.142-.5-.217-.748-.217-.276-.001-.499-.225-.499-.5V2.777c0-.179.096-.344.251-.434z"
                        transform="translate(-897 -20) translate(897 20)"></path>
            </g>
        </g>
    </g>
</svg>
